ĐỒ ÁN CUỐI KỲ
…
#loại bỏ các hàng có giá trị thiếu (NA) từ bảng dữ liệu data

data_DT <- na.omit(data_DT)
data_DT

## # A tibble: 5,110 × 11
##    gender   age hypertension heart_disease ever_married work_type Residence_type
##    <fct>  <dbl> <fct>        <fct>         <fct>        <fct>     <fct>         
##  1 Male      67 No           Yes           Yes          Private   Urban         
##  2 Female    61 No           No            Yes          Self-emp… Rural         
##  3 Male      80 No           Yes           Yes          Private   Rural         
##  4 Female    49 No           No            Yes          Private   Urban         
##  5 Female    79 Yes          No            Yes          Self-emp… Rural         
##  6 Male      81 No           No            Yes          Private   Urban         
##  7 Male      74 Yes          Yes           Yes          Private   Rural         
##  8 Female    69 No           No            No           Private   Urban         
##  9 Female    59 No           No            Yes          Private   Rural         
## 10 Female    78 No           No            Yes          Private   Urban         
## # ℹ 5,100 more rows
## # ℹ 4 more variables: avg_glucose_level <dbl>, bmi <fct>, smoking_status <fct>,
## #   stroke <dbl>

# Kiểm tra cột gender
as.data.frame(table(data_DT$gender))

##     Var1 Freq
## 1 Female 2994
## 2   Male 2115
## 3  Other    1

# Do chỉ có một giá trị 'other' nên tiến hành xoá nó khỏi cột gender để không ảnh hưởng việc phân tích
data_DT = data_DT[!data_DT$gender == 'Other',]
data_DT

## # A tibble: 5,109 × 11
##    gender   age hypertension heart_disease ever_married work_type Residence_type
##    <fct>  <dbl> <fct>        <fct>         <fct>        <fct>     <fct>         
##  1 Male      67 No           Yes           Yes          Private   Urban         
##  2 Female    61 No           No            Yes          Self-emp… Rural         
##  3 Male      80 No           Yes           Yes          Private   Rural         
##  4 Female    49 No           No            Yes          Private   Urban         
##  5 Female    79 Yes          No            Yes          Self-emp… Rural         
##  6 Male      81 No           No            Yes          Private   Urban         
##  7 Male      74 Yes          Yes           Yes          Private   Rural         
##  8 Female    69 No           No            No           Private   Urban         
##  9 Female    59 No           No            Yes          Private   Rural         
## 10 Female    78 No           No            Yes          Private   Urban         
## # ℹ 5,099 more rows
## # ℹ 4 more variables: avg_glucose_level <dbl>, bmi <fct>, smoking_status <fct>,
## #   stroke <dbl>
…
